@startuml

hide empty description

skinparam linetype ortho

skinparam state{
        BackgroundColor<<long>> SteelBlue
        BorderColor<<long>> SteelBlue

        BackgroundColor<<medium>> LightSkyBlue
        BorderColor<<medium>> LightSkyBlue

        BackgroundColor<<short>> DarkCyan
        BorderColor<<short>> DarkCyan
}

state "Long Term" as long_term <<long>>{

    state "new" as new <<long>>
    state "exit" as exit <<long>>

    state "Medium Term" as medium_term <<medium>>{

        state "blocked-suspended" as block_suspended <<medium>>
        state "ready-suspended" as ready_suspended <<medium>>

        state "Short Term" as short_term <<short>>{
            state "running" as running <<short>>
            state "ready" as ready <<short>>
            state "blocked" as blocked <<short>>
        }
    }
}

new -> ready

new -> ready_suspended

running -> ready
running -> blocked
running -> exit

ready --> running
ready --> ready_suspended

blocked -> ready
blocked --> block_suspended

block_suspended --> blocked
block_suspended --> ready_suspended

ready_suspended --> ready

@enduml