@startuml

hide empty description

state "低优先级就绪" as low_priority_ready
state "运行" as running
state "退出" as exited
state "阻塞" as blocked
state "高优先级就绪" as high_priority_ready
state "创建" as create

create -> high_priority_ready : 1
high_priority_ready -> running : 时间片100ms 2

running -> blocked : 3
running -> low_priority_ready : 4

low_priority_ready --> running : 时间片500ms 5
blocked --> high_priority_ready : 6

running -> exited : 7

@enduml