digraph programming_phases{
    bgcolor=transparent;
    splines=polyline;
    node[shape="box"];

    {
        src_01[label="source code"];
        src_02[label="source code"];
        src_03[label="source code"];
        self_header[label="self-defined\nheader"];
        lib_header[label="lib\nheader"];
        rank=same;
    }
    {
        msrc_01[label="modified\nsource code"];
        msrc_02[label="modified\nsource code"];
        msrc_03[label="modified\nsource code"];
        rank=same;
    }
    {
        obj_01[label="object file"];
        obj_02[label="object file"];
        obj_03[label="object file"];
        static_lib[label="static lib\nobject file"];
        dynamic_lib_stub[label="dynamic lib\nstub"];
        rank=same;
    }

    {
        link[label="static link",shape="underline"];
        dynamic_lib[label="dynamic lib\nobject file"];
    }
    
    src_01 -> msrc_01 -> obj_01 -> link;
    src_02 -> msrc_02 -> obj_02 -> link;
    src_03 -> msrc_03 -> obj_03 -> link;
    {self_header, lib_header} -> msrc_03;
    {static_lib,dynamic_lib_stub} -> link;

    {
        executive[label="executive\nprogram", shape="cylinder"];
        memory[label="main\nmemory", shape="note"];
        rank=same;
    }
    process[label="OS jmp to\nprocess instruction\nprocess start",shape="plain"];

    link->executive;
    executive->memory[minlen=2];

    dynamic_lib_stub -> dynamic_lib[style="dashed",dir="none"];
    dynamic_lib->memory[label="runtime dynamic\nlink"];

    memory->process[style="dotted",dir="none"];
}